\relax 
\providecommand\HyperFirstAtBeginDocument{\AtBeginDocument}
\HyperFirstAtBeginDocument{\ifx\hyper@anchor\@undefined
\global\let\oldcontentsline\contentsline
\gdef\contentsline#1#2#3#4{\oldcontentsline{#1}{#2}{#3}}
\global\let\oldnewlabel\newlabel
\gdef\newlabel#1#2{\newlabelxx{#1}#2}
\gdef\newlabelxx#1#2#3#4#5#6{\oldnewlabel{#1}{{#2}{#3}}}
\AtEndDocument{\ifx\hyper@anchor\@undefined
\let\contentsline\oldcontentsline
\let\newlabel\oldnewlabel
\fi}
\fi}
\global\let\hyper@last\relax 
\gdef\HyperFirstAtBeginDocument#1{#1}
\providecommand*\HyPL@Entry[1]{}
\HyPL@Entry{0<</S/D>>}
\@writefile{toc}{\contentsline {section}{\numberline {1}Instruction}{2}{section.1}}
\@writefile{toc}{\contentsline {section}{\numberline {2}Design Overview}{2}{section.2}}
\@writefile{lot}{\contentsline {table}{\numberline {1}{\ignorespaces Experiment environment}}{3}{table.1}}
\newlabel{tab:env}{{1}{3}{Experiment environment\relax }{table.1}{}}
\@writefile{toc}{\contentsline {subsection}{\numberline {2.1}Worker: pthread and pthread-prefork}{3}{subsection.2.1}}
\@writefile{toc}{\contentsline {subsection}{\numberline {2.2}Worker: MPI}{3}{subsection.2.2}}
\@writefile{toc}{\contentsline {section}{\numberline {3}Experiment Results and Analysis}{3}{section.3}}
\newlabel{sec:cmp-pthreadpf}{{3.1}{3}{Parallel Algorithm Efficiency\relax }{subsection.3.1}{}}
\@writefile{toc}{\contentsline {subsection}{\numberline {3.1}Parallel Algorithm Efficiency}{3}{subsection.3.1}}
\@writefile{lof}{\contentsline {figure}{\numberline {1}{\ignorespaces Efficiency and Real Time vs Number of Threads/Processes}}{4}{figure.1}}
\newlabel{fig:effi}{{1}{4}{Efficiency and Real Time vs Number of Threads/Processes\relax }{figure.1}{}}
\newlabel{sec:phasecpu}{{3.2}{4}{CPU Time for Different Phases\relax }{subsection.3.2}{}}
\@writefile{toc}{\contentsline {subsection}{\numberline {3.2}CPU Time for Different Phases}{4}{subsection.3.2}}
\@writefile{toc}{\contentsline {subsection}{\numberline {3.3}Algorithm Complexity}{4}{subsection.3.3}}
\@writefile{toc}{\contentsline {subsection}{\numberline {3.4}MPI: CPU Time and Chunk Size}{4}{subsection.3.4}}
\@writefile{lof}{\contentsline {figure}{\numberline {2}{\ignorespaces Efficiency and Real Time vs Number of Iterations}}{5}{figure.2}}
\newlabel{fig:effi-niter}{{2}{5}{Efficiency and Real Time vs Number of Iterations\relax }{figure.2}{}}
\@writefile{lof}{\contentsline {figure}{\numberline {3}{\ignorespaces Efficiency vs Number of Bodies}}{5}{figure.3}}
\newlabel{fig:effi-size}{{3}{5}{Efficiency vs Number of Bodies\relax }{figure.3}{}}
\@writefile{lof}{\contentsline {figure}{\numberline {4}{\ignorespaces CPU Time for Different Phases}}{6}{figure.4}}
\newlabel{fig:phasecpu}{{4}{6}{CPU Time for Different Phases\relax }{figure.4}{}}
\@writefile{lof}{\contentsline {figure}{\numberline {5}{\ignorespaces Total CPU Time vs Input Size}}{6}{figure.5}}
\newlabel{fig:complexity}{{5}{6}{Total CPU Time vs Input Size\relax }{figure.5}{}}
\@writefile{lof}{\contentsline {figure}{\numberline {6}{\ignorespaces Total CPU Time vs Chunk Size}}{6}{figure.6}}
\newlabel{fig:chunksize}{{6}{6}{Total CPU Time vs Chunk Size\relax }{figure.6}{}}
\@writefile{toc}{\contentsline {section}{\numberline {4}Experience}{7}{section.4}}
\@writefile{toc}{\contentsline {section}{\numberline {5}Appendix}{7}{section.5}}
\@writefile{toc}{\contentsline {subsection}{\numberline {5.1}List of Figures and Tables}{7}{subsection.5.1}}
\@writefile{toc}{\contentsline {subsection}{\numberline {5.2}Source List}{7}{subsection.5.2}}
\@writefile{toc}{\contentsline {subsubsection}{\numberline {5.2.1}/}{7}{subsubsection.5.2.1}}
\@writefile{toc}{\contentsline {subsubsection}{\numberline {5.2.2}include/}{13}{subsubsection.5.2.2}}
\@writefile{toc}{\contentsline {subsubsection}{\numberline {5.2.3}server/}{26}{subsubsection.5.2.3}}
\@writefile{toc}{\contentsline {subsubsection}{\numberline {5.2.4}worker/}{29}{subsubsection.5.2.4}}
\@writefile{toc}{\contentsline {subsubsection}{\numberline {5.2.5}sptree/}{41}{subsubsection.5.2.5}}
