pthread: nslave=4
worker=pthread time_delta=0.040 opening_agl_threshold=0.850 mpi_chunk_size=100
tot_cputime=67.319 tot_realtime=25.083 fps=19.934 simu_time=20.000
pthread_collision: cpu=6.6240 real=2.3370
pthread_gravity: cpu=49.6075 real=13.0206
seq_mktree: cpu=8.2537 real=8.2507
